[{"id":1,"nombre":"Averill Lelliott","email":"alelliott0@php.net","pass":"7AN37qlzI","estado":"no logeado"},
{"id":2,"nombre":"Ashil Riceards","email":"ariceards1@elegantthemes.com","pass":"ZTq6g1","estado":"no logeado"},
{"id":3,"nombre":"Vi Reeder","email":"vreeder2@constantcontact.com","pass":"bYKH108","estado":"no logeado"},
{"id":4,"nombre":"Belita Ebhardt","email":"bebhardt3@state.gov","pass":"CMicSQK1ozLd","estado":"no logeado"},
{"id":5,"nombre":"Hersch Wisby","email":"hwisby4@youku.com","pass":"zgjzdI","estado":"no logeado"},
{"id":6,"nombre":"Mitchel Copnar","email":"mcopnar5@dropbox.com","pass":"SDMcLNbxiuUW","estado":"no logeado"},
{"id":7,"nombre":"Dulcine Stidworthy","email":"dstidworthy6@nps.gov","pass":"KQkOX1","estado":"no logeado"},
{"id":8,"nombre":"Ana Kasbye","email":"akasbye7@seattletimes.com","pass":"hMhpdKI","estado":"no logeado"},
{"id":9,"nombre":"Aldin MacCurtain","email":"amaccurtain8@epa.gov","pass":"8VbYdceC3pl","estado":"no logeado"},
{"id":10,"nombre":"Paten Cowlas","email":"pcowlas9@qq.com","pass":"pu5wQsAuwaa","estado":"no logeado"},
{"id":11,"nombre":"Chicky Swannell","email":"cswannella@weibo.com","pass":"kkLEptFNl9","estado":"no logeado"},
{"id":12,"nombre":"Tamma Kingman","email":"tkingmanb@fema.gov","pass":"0QrjscgVydCh","estado":"no logeado"},
{"id":13,"nombre":"Arnoldo Vinck","email":"avinckc@wiley.com","pass":"SV6LIN","estado":"no logeado"},
{"id":14,"nombre":"Andrei Thunderman","email":"athundermand@behance.net","pass":"VwiWyuN","estado":"no logeado"},
{"id":15,"nombre":"Angelita Chesterton","email":"achestertone@gnu.org","pass":"fz3Krfz","estado":"no logeado"},
{"id":16,"nombre":"Weber Bisset","email":"wbissetf@indiatimes.com","pass":"kgMkt2N","estado":"no logeado"},
{"id":17,"nombre":"Tremayne Kornilov","email":"tkornilovg@blogspot.com","pass":"SWdE1kJC","estado":"no logeado"},
{"id":18,"nombre":"Lurline McQueen","email":"lmcqueenh@ezinearticles.com","pass":"koPpc8qlj4t","estado":"no logeado"},
{"id":19,"nombre":"Monika Jozwicki","email":"mjozwickii@apache.org","pass":"wEwmRAYz","estado":"no logeado"},
{"id":20,"nombre":"Nisse Leaton","email":"nleatonj@tripod.com","pass":"Tc0d80fJhqH","estado":"no logeado"},
{"id":21,"nombre":"Lee McCray","email":"lmccrayk@networksolutions.com","pass":"dZYhdlijQrC","estado":"no logeado"},
{"id":22,"nombre":"Luci Inde","email":"lindel@dion.ne.jp","pass":"RUVste","estado":"no logeado"},
{"id":23,"nombre":"Brandise Lewsley","email":"blewsleym@webeden.co.uk","pass":"1lPfMi","estado":"no logeado"},
{"id":24,"nombre":"Tansy Perry","email":"tperryn@hostgator.com","pass":"QPTCSr8P","estado":"no logeado"},
{"id":25,"nombre":"Maurise Charlwood","email":"mcharlwoodo@google.ca","pass":"WqRktnncqTW","estado":"no logeado"},
{"id":26,"nombre":"Birk Beldan","email":"bbeldanp@jalbum.net","pass":"1zRiX2EQn","estado":"no logeado"},
{"id":27,"nombre":"Sofie Vittori","email":"svittoriq@youtube.com","pass":"cA4RebLynv","estado":"no logeado"},
{"id":28,"nombre":"Shanda Cancott","email":"scancottr@narod.ru","pass":"7OGfZV","estado":"no logeado"},
{"id":29,"nombre":"Gunter Paulusch","email":"gpauluschs@nhs.uk","pass":"MhUaeIQDTUzF","estado":"no logeado"},
{"id":30,"nombre":"Shaw D'Elias","email":"sdeliast@foxnews.com","pass":"syhEJxyNKPQ","estado":"no logeado"},
{"id":31,"nombre":"Judi Byllam","email":"jbyllamu@epa.gov","pass":"Grhohor","estado":"no logeado"},
{"id":32,"nombre":"Charin Harfoot","email":"charfootv@plala.or.jp","pass":"0lBVcoLvXXeb","estado":"no logeado"},
{"id":33,"nombre":"Alexandr Davydzenko","email":"adavydzenkow@chicagotribune.com","pass":"IF7R8s8","estado":"no logeado"},
{"id":34,"nombre":"Aaren Langcaster","email":"alangcasterx@live.com","pass":"VBzKxPpLwBA0","estado":"no logeado"},
{"id":35,"nombre":"Cordy Ollenbuttel","email":"collenbuttely@w3.org","pass":"q5abQj9vP6M3","estado":"no logeado"},
{"id":36,"nombre":"Noak Chrismas","email":"nchrismasz@nyu.edu","pass":"NNKLstkzKow","estado":"no logeado"},
{"id":37,"nombre":"Rafael Tripon","email":"rtripon10@meetup.com","pass":"JBvEIb","estado":"no logeado"},
{"id":38,"nombre":"Malissa Mahaddy","email":"mmahaddy11@aboutads.info","pass":"ltDIB5n","estado":"no logeado"},
{"id":39,"nombre":"Free Josse","email":"fjosse12@cnn.com","pass":"OEGbRG0Vm","estado":"no logeado"},
{"id":40,"nombre":"Andres Duffil","email":"aduffil13@ox.ac.uk","pass":"ojALwK","estado":"no logeado"},
{"id":41,"nombre":"Sarina Greatorex","email":"sgreatorex14@github.com","pass":"VIgotU","estado":"no logeado"},
{"id":42,"nombre":"Elbertine Perello","email":"eperello15@go.com","pass":"oKTY80EnHGR","estado":"no logeado"},
{"id":43,"nombre":"Margalit Golly","email":"mgolly16@redcross.org","pass":"aQ3h94CApr","estado":"no logeado"},
{"id":44,"nombre":"Joline McConnell","email":"jmcconnell17@jimdo.com","pass":"aPhcgGXbNVZa","estado":"no logeado"},
{"id":45,"nombre":"Josie Morgen","email":"jmorgen18@theatlantic.com","pass":"tV6sU2","estado":"no logeado"},
{"id":46,"nombre":"Frasier Goatcher","email":"fgoatcher19@bing.com","pass":"SSFnLYeDk","estado":"no logeado"},
{"id":47,"nombre":"Weidar Toye","email":"wtoye1a@epa.gov","pass":"pz5XQvGjM","estado":"no logeado"},
{"id":48,"nombre":"Sinclair Dochon","email":"sdochon1b@moonfruit.com","pass":"KTXNdYALBM","estado":"no logeado"},
{"id":49,"nombre":"Jake Raigatt","email":"jraigatt1c@discuz.net","pass":"y16zJKb7s","estado":"no logeado"},
{"id":50,"nombre":"Brandise Schultheiss","email":"bschultheiss1d@sogou.com","pass":"mcT8cWArdett","estado":"no logeado"},
{"id":51,"nombre":"Didi Emmott","email":"demmott1e@yale.edu","pass":"P8Qp87MZguW1","estado":"no logeado"},
{"id":52,"nombre":"Zoe Heenan","email":"zheenan1f@cisco.com","pass":"uuvDzEF2S","estado":"no logeado"},
{"id":53,"nombre":"Raquel Base","email":"rbase1g@gov.uk","pass":"3Dwepp","estado":"no logeado"},
{"id":54,"nombre":"Dorene Warfield","email":"dwarfield1h@nyu.edu","pass":"fPjU22nQf","estado":"no logeado"},
{"id":55,"nombre":"Emmanuel Caesmans","email":"ecaesmans1i@baidu.com","pass":"F1r1UYw","estado":"no logeado"},
{"id":56,"nombre":"Cynde Callway","email":"ccallway1j@tamu.edu","pass":"nkFlPq2Fe","estado":"no logeado"},
{"id":57,"nombre":"Patricia Doreward","email":"pdoreward1k@123-reg.co.uk","pass":"qRDf72EJ","estado":"no logeado"},
{"id":58,"nombre":"Karel Penquet","email":"kpenquet1l@java.com","pass":"JVPOwc4","estado":"no logeado"},
{"id":59,"nombre":"Evvie Eger","email":"eeger1m@engadget.com","pass":"SECxAg3","estado":"no logeado"},
{"id":60,"nombre":"Goraud Ceschini","email":"gceschini1n@creativecommons.org","pass":"nblRhkQZZVh","estado":"no logeado"},
{"id":61,"nombre":"Johnny Kirkbright","email":"jkirkbright1o@sciencedaily.com","pass":"tELfEKofzXB1","estado":"no logeado"},
{"id":62,"nombre":"Wallis Delnevo","email":"wdelnevo1p@cocolog-nifty.com","pass":"jUv0vYR2VUTY","estado":"no logeado"},
{"id":63,"nombre":"Alphard Fosken","email":"afosken1q@people.com.cn","pass":"H78oGY","estado":"no logeado"},
{"id":64,"nombre":"Vinnie Dalziel","email":"vdalziel1r@uol.com.br","pass":"oGqhHqTwFjxI","estado":"no logeado"},
{"id":65,"nombre":"Adlai Meldrum","email":"ameldrum1s@studiopress.com","pass":"xsCXSrkIxv","estado":"no logeado"},
{"id":66,"nombre":"Gabbi Wittleton","email":"gwittleton1t@irs.gov","pass":"yXa3qZXs","estado":"no logeado"},
{"id":67,"nombre":"Costanza Pearton","email":"cpearton1u@apple.com","pass":"0CZEsj","estado":"no logeado"},
{"id":68,"nombre":"Alden Balser","email":"abalser1v@cnet.com","pass":"UOfsTCxLI","estado":"no logeado"},
{"id":69,"nombre":"Taddeusz Cholonin","email":"tcholonin1w@bravesites.com","pass":"73hpfFwy","estado":"no logeado"},
{"id":70,"nombre":"Madeline Shropsheir","email":"mshropsheir1x@yahoo.co.jp","pass":"0wtbMm","estado":"no logeado"},
{"id":71,"nombre":"Alonso Riordan","email":"ariordan1y@google.it","pass":"MWb5EwZcR","estado":"no logeado"},
{"id":72,"nombre":"Addie Brumfield","email":"abrumfield1z@illinois.edu","pass":"rFP6fB6dv","estado":"no logeado"},
{"id":73,"nombre":"Caryn Innett","email":"cinnett20@sfgate.com","pass":"nX3nWW","estado":"no logeado"},
{"id":74,"nombre":"Javier Ingry","email":"jingry21@umich.edu","pass":"qBWubym","estado":"no logeado"},
{"id":75,"nombre":"Rabi Faircliff","email":"rfaircliff22@wunderground.com","pass":"r910z7","estado":"no logeado"},
{"id":76,"nombre":"Marthena Scamadine","email":"mscamadine23@ca.gov","pass":"r0xgH4","estado":"no logeado"},
{"id":77,"nombre":"Correna Collard","email":"ccollard24@instagram.com","pass":"2HJopN","estado":"no logeado"},
{"id":78,"nombre":"Maddie Sleicht","email":"msleicht25@tripadvisor.com","pass":"RCuAODkk0dq","estado":"no logeado"},
{"id":79,"nombre":"Arel Scoines","email":"ascoines26@live.com","pass":"GfNTlSgPqCf","estado":"no logeado"},
{"id":80,"nombre":"Jaimie Touhig","email":"jtouhig27@yolasite.com","pass":"2Fsf4K","estado":"no logeado"},
{"id":81,"nombre":"Morry Doding","email":"mdoding28@accuweather.com","pass":"AUwPKg","estado":"no logeado"},
{"id":82,"nombre":"Dolly Ryburn","email":"dryburn29@imgur.com","pass":"qtHw5yQ","estado":"no logeado"},
{"id":83,"nombre":"Garvy Dwelley","email":"gdwelley2a@ebay.com","pass":"U9VME4Uyo6","estado":"no logeado"},
{"id":84,"nombre":"Juliet Goldstone","email":"jgoldstone2b@instagram.com","pass":"6w6n27vNtfA","estado":"no logeado"},
{"id":85,"nombre":"Mariann Harkins","email":"mharkins2c@reference.com","pass":"vHfCZaXKJm","estado":"no logeado"},
{"id":86,"nombre":"Loralie Maciejak","email":"lmaciejak2d@alexa.com","pass":"xw5hfg9wqn","estado":"no logeado"},
{"id":87,"nombre":"Rahel Fearon","email":"rfearon2e@fastcompany.com","pass":"lAFPD1mYx","estado":"no logeado"},
{"id":88,"nombre":"Angelo Sorrill","email":"asorrill2f@yellowbook.com","pass":"vQBDjKDu","estado":"no logeado"},
{"id":89,"nombre":"Norah Caunt","email":"ncaunt2g@digg.com","pass":"jQPMshzQG4","estado":"no logeado"},
{"id":90,"nombre":"Jean Gerritzen","email":"jgerritzen2h@vk.com","pass":"FxpDNNaQa","estado":"no logeado"},
{"id":91,"nombre":"Ede Lindelof","email":"elindelof2i@blog.com","pass":"8b0ng58oOd6","estado":"no logeado"},
{"id":92,"nombre":"Anderson Twiname","email":"atwiname2j@xing.com","pass":"AiXpAPa4A","estado":"no logeado"},
{"id":93,"nombre":"Silva Walley","email":"swalley2k@g.co","pass":"idXFNooBbm","estado":"no logeado"},
{"id":94,"nombre":"Mufi Silcox","email":"msilcox2l@hibu.com","pass":"mPwY5mYn","estado":"no logeado"},
{"id":95,"nombre":"Lauren Turnpenny","email":"lturnpenny2m@bluehost.com","pass":"DN7SYiK3pwe","estado":"no logeado"},
{"id":96,"nombre":"Rowe Fennelly","email":"rfennelly2n@psu.edu","pass":"Tq9haNkRX3t","estado":"no logeado"},
{"id":97,"nombre":"Grayce Hunting","email":"ghunting2o@hao123.com","pass":"RJhg7gwA","estado":"no logeado"},
{"id":98,"nombre":"Patty Robroe","email":"probroe2p@pen.io","pass":"uzMHL3tGxkGb","estado":"no logeado"},
{"id":99,"nombre":"Kristofor Cadany","email":"kcadany2q@flickr.com","pass":"GWGdG1","estado":"no logeado"},
{"id":100,"nombre":"Roger Maycock","email":"rmaycock2r@1688.com","pass":"dmqjo2duP1","estado":"no logeado"}]
